x1,x2,x3,x4,w0,w1,w2
79.99712171,46.87674753,0.9004728618,2.479052734,0.01312399997,-0.009543994893,-1.473733671
1000000,1000000,1000000,1000000,1000000,1000000,1000000
1000000,1000000,1000000,1000000,1000000,1000000,1000000
1000000,1000000,1000000,1000000,1000000,1000000,1000000
1000000,1000000,1000000,1000000,1000000,1000000,1000000
1000000,1000000,1000000,1000000,1000000,1000000,1000000
1000000,1000000,1000000,1000000,1000000,1000000,1000000
1000000,1000000,1000000,1000000,1000000,1000000,1000000
1000000,1000000,1000000,1000000,1000000,1000000,1000000
79.99917763,49.92516447,0.9008968956,2.324604235,0.01307786201,-0.004949145304,-1.567054552
1000000,1000000,1000000,1000000,1000000,1000000,1000000
1000000,1000000,1000000,1000000,1000000,1000000,1000000
1000000,1000000,1000000,1000000,1000000,1000000,1000000
80,50,0.9049511719,2.317949219,0.0130864102,-0.004246098709,-1.565138774
80,50,0.9004589844,2.321435547,0.01307525953,-0.0004415521622,-1.569756405
1000000,1000000,1000000,1000000,1000000,1000000,1000000
80,49.18359375,0.9002929688,2.360761719,0.01308688793,-0.005826221466,-1.545961254
1000000,1000000,1000000,1000000,1000000,1000000,1000000
1000000,1000000,1000000,1000000,1000000,1000000,1000000
1000000,1000000,1000000,1000000,1000000,1000000,1000000
1000000,1000000,1000000,1000000,1000000,1000000,1000000
80,50,0.9024023438,2.31984375,0.01308047981,-0.01030237427,-1.567617774
1000000,1000000,1000000,1000000,1000000,1000000,1000000
1000000,1000000,1000000,1000000,1000000,1000000,1000000
1000000,1000000,1000000,1000000,1000000,1000000,1000000
1000000,1000000,1000000,1000000,1000000,1000000,1000000
80,49.234375,0.9012695313,2.3575,0.01308862073,-0.007845214844,-1.54643997
1000000,1000000,1000000,1000000,1000000,1000000,1000000
1000000,1000000,1000000,1000000,1000000,1000000,1000000
1000000,1000000,1000000,1000000,1000000,1000000,1000000
1000000,1000000,1000000,1000000,1000000,1000000,1000000
80,48.06835938,0.9007226563,2.41625,0.01310463414,-0.004583056641,-1.511639341
1000000,1000000,1000000,1000000,1000000,1000000,1000000
73,32.66666667,1.036666667,3.496666667,0.01661297766,-3.1242,-0.3523578736
1000000,1000000,1000000,1000000,1000000,1000000,1000000
80,50,0.9352148438,2.2946875,0.01316094113,-0.006114123535,-1.534147126
79.99747243,47.4162454,0.9008932675,2.45,0.01311606619,-0.005590205869,-1.490813913
1000000,1000000,1000000,1000000,1000000,1000000,1000000
1000000,1000000,1000000,1000000,1000000,1000000,1000000
1000000,1000000,1000000,1000000,1000000,1000000,1000000
1000000,1000000,1000000,1000000,1000000,1000000,1000000
1000000,1000000,1000000,1000000,1000000,1000000,1000000
79.99826389,49.99869792,0.90546875,2.317588976,0.01308842211,-0.008218598542,-1.564455753
80,50,0.9002929688,2.321533203,0.01307499646,-0.003362226486,-1.569873826
1000000,1000000,1000000,1000000,1000000,1000000,1000000
1000000,1000000,1000000,1000000,1000000,1000000,1000000
79.99696181,49.99956597,0.9010416667,2.320985243,0.01307786935,-0.005503468455,-1.568976369
1000000,1000000,1000000,1000000,1000000,1000000,1000000
1000000,1000000,1000000,1000000,1000000,1000000,1000000
1000000,1000000,1000000,1000000,1000000,1000000,1000000
79.99652778,49.9984809,0.9049967448,2.318006727,0.01308766753,-0.005349664041,-1.564926836
1000000,1000000,1000000,1000000,1000000,1000000,1000000
1000000,1000000,1000000,1000000,1000000,1000000,1000000
1000000,1000000,1000000,1000000,1000000,1000000,1000000
80,50,0.912421875,2.312255859,0.01310449572,-0.0001697158814,-1.557615248
1000000,1000000,1000000,1000000,1000000,1000000,1000000
1000000,1000000,1000000,1000000,1000000,1000000,1000000
1000000,1000000,1000000,1000000,1000000,1000000,1000000
1000000,1000000,1000000,1000000,1000000,1000000,1000000
80,47.41210938,0.9042285156,2.4475,0.01312345663,-0.005641943359,-1.487314134
1000000,1000000,1000000,1000000,1000000,1000000,1000000
1000000,1000000,1000000,1000000,1000000,1000000,1000000
1000000,1000000,1000000,1000000,1000000,1000000,1000000
80,49,0.9016113281,2.36875,0.01309276151,-0.004977416992,-1.539155987
1000000,1000000,1000000,1000000,1000000,1000000,1000000
1000000,1000000,1000000,1000000,1000000,1000000,1000000
1000000,1000000,1000000,1000000,1000000,1000000,1000000
1000000,1000000,1000000,1000000,1000000,1000000,1000000
1000000,1000000,1000000,1000000,1000000,1000000,1000000
1000000,1000000,1000000,1000000,1000000,1000000,1000000
80,50,0.900390625,2.321484375,0.01307511013,-0.000798034668,-1.569819409
79.99739583,43.56445313,0.9001595052,2.671888021,0.01318086617,-0.001153668637,-1.357842264
79.99839154,46.10627298,0.9014131434,2.520588235,0.01313828304,-0.002722658468,-1.447316924
1000000,1000000,1000000,1000000,1000000,1000000,1000000
1000000,1000000,1000000,1000000,1000000,1000000,1000000
1000000,1000000,1000000,1000000,1000000,1000000,1000000
79.99917763,47.20168586,0.9001978824,2.461934622,0.013117113,-0.002437148002,-1.484751218
1000000,1000000,1000000,1000000,1000000,1000000,1000000
1000000,1000000,1000000,1000000,1000000,1000000,1000000
1000000,1000000,1000000,1000000,1000000,1000000,1000000
1000000,1000000,1000000,1000000,1000000,1000000,1000000
1000000,1000000,1000000,1000000,1000000,1000000,1000000
1000000,1000000,1000000,1000000,1000000,1000000,1000000
80,47.3984375,0.9108398438,2.442919922,0.01313959095,-0.001855630875,-1.480102105
1000000,1000000,1000000,1000000,1000000,1000000,1000000
79.99793199,49.88579963,0.9409983915,2.295634191,0.01317738625,-0.003356257508,-1.524835208
1000000,1000000,1000000,1000000,1000000,1000000,1000000
1000000,1000000,1000000,1000000,1000000,1000000,1000000
79.99979441,49.56064967,0.914113898,2.331743421,0.0131153803,-0.008596600984,-1.542946467
1000000,1000000,1000000,1000000,1000000,1000000,1000000
80,48.94921875,0.90078125,2.371914063,0.01309144258,-0.003970825195,-1.538497705
1000000,1000000,1000000,1000000,1000000,1000000,1000000
1000000,1000000,1000000,1000000,1000000,1000000,1000000
80,50,0.9008886719,2.321035156,0.01307664433,-0.007379183579,-1.569201343
80,50,0.9009765625,2.320947266,0.0130769562,-0.009386615753,-1.569077595
1000000,1000000,1000000,1000000,1000000,1000000,1000000
1000000,1000000,1000000,1000000,1000000,1000000,1000000
1000000,1000000,1000000,1000000,1000000,1000000,1000000
79.99782986,49.02821181,0.9004828559,2.368234592,0.01309040466,-0.00782063337,-1.54103657
80,49.27539063,0.9116015625,2.3475,0.01311306171,-0.003885351563,-1.537181754